Economic Modeling
…
as_tibble(e)

# A tibble: 44 × 12
   Quarters Gdp_bn    Imports_Q   Exports_Q  Ur_Q TradeDeficit TradeDeficit_Size
   <chr>     <dbl>        <dbl>       <dbl> <dbl>        <int>             <dbl>
 1 2008Q1   15671. 499293138893     2.86e11   5              1      213193004550
 2 2008Q2   15752. 546764933914     3.10e11   5.3            1      236746934192
 3 2008Q3   15667  568544457479     3.07e11   6              1      261463305767
 4 2008Q4   15328  475880224242     2.67e11   6.9            1      209258191285
 5 2009Q1   15156. 352671071726     2.20e11   8.3            1      132982227909
 6 2009Q2   15134. 359662090967     2.23e11   9.3            1      136332606356
 7 2009Q3   15189. 403440413977     2.34e11   9.6            1      169296154960
 8 2009Q4   15356. 433389908612     2.60e11   9.9            1      173807537666
 9 2010Q1   15415. 422974305699     2.62e11   9.8            1      161378259707
10 2010Q2   15557. 476011585435     2.77e11   9.6            1      199274284222
# ℹ 34 more rows
# ℹ 5 more variables: GDP_Bn <dbl>, UnemploymentRate_Q <dbl>,
#   TradeDeficit_Size_Bn <dbl>, Imports_Bn <dbl>,
#   UnemploymentRate_Numeric <dbl>
…
